{
	"info": {
		"_postman_id": "66c63a26-4d95-4645-9574-38f56f8a4f7c",
		"name": "s32-s36 Collection",
		"schema": "https://schema.getpostman.com/json/collection/v2.1.0/collection.json"
	},
	"item": [
		{
			"name": "POST check email",
			"request": {
				"method": "POST",
				"header": [],
				"body": {
					"mode": "raw",
					"raw": "{\r\n    \"email\": \"john@email.com\"\r\n}",
					"options": {
						"raw": {
							"language": "json"
						}
					}
				},
				"url": {
					"raw": "localhost:4000/users/checkemail",
					"host": [
						"localhost"
					],
					"port": "4000",
					"path": [
						"users",
						"checkemail"
					]
				}
			},
			"response": []
		},
		{
			"name": "POST user registration",
			"request": {
				"method": "POST",
				"header": [],
				"body": {
					"mode": "raw",
					"raw": "{\r\n    \"firstName\": \"John\",\r\n    \"lastName\": \"Smith\",\r\n    \"email\": \"john@email.com\",\r\n    \"mobileNumber\": \"09123456789\",\r\n    \"password\": \"john123\"\r\n}",
					"options": {
						"raw": {
							"language": "json"
						}
					}
				},
				"url": {
					"raw": "localhost:4000/users/register",
					"host": [
						"localhost"
					],
					"port": "4000",
					"path": [
						"users",
						"register"
					]
				}
			},
			"response": []
		},
		{
			"name": "POST user authentication (login)",
			"request": {
				"method": "POST",
				"header": [],
				"body": {
					"mode": "raw",
					"raw": "{\r\n    \"email\": \"john@email.com\",\r\n    \"password\": \"john123\"\r\n}",
					"options": {
						"raw": {
							"language": "json"
						}
					}
				},
				"url": {
					"raw": "localhost:4000/users/login",
					"host": [
						"localhost"
					],
					"port": "4000",
					"path": [
						"users",
						"login"
					]
				}
			},
			"response": []
		},
		{
			"name": "GET user details",
			"protocolProfileBehavior": {
				"disableBodyPruning": true
			},
			"request": {
				"method": "GET",
				"header": [],
				"body": {
					"mode": "raw",
					"raw": "{\r\n    \"id\": \"62a1e3a705ec53689ade723c\"\r\n}",
					"options": {
						"raw": {
							"language": "json"
						}
					}
				},
				"url": {
					"raw": "localhost:4000/users/details",
					"host": [
						"localhost"
					],
					"port": "4000",
					"path": [
						"users",
						"details"
					]
				}
			},
			"response": []
		}
	]
}